{
  "title": "Insights",
  "active": "insights",
  "featured": [
    {
      "image": "images/dummy/photo1_sqr.jpg",
      "title": "What is CS and why is it important?"
    },
    {
      "image": "images/dummy/photo2_sqr.jpg",
      "title": "How does CX come into play during the M&A process"
    },
    {
      "image": "images/dummy/photo3_sqr.jpg",
      "title": "How does AGI build a consistent CX across brand"
    },
    {
      "image": "images/dummy/photo4_sqr.jpg",
      "title": "What is CS and why is it important?"
    },
    {
      "image": "mages/dummy/photo5_sqr.jpg",
      "title": "How does CX come into play during the M&A process"
    }
  ],
  "recent": [
    {
      "image": "images/dummy/photo4_16x9.jpg",
      "title": "How can tech like AI and ML help your CX",
      "info": "<small class=\"text-label\">By David Postill</small><time datetime=\"2019-09-22\">22.09.2019</time>",
      "body": "Lorem ipsum dolor sit amet, consectetur adipiscing elit. Praesent dapibus dapibus nisi. Maecenas placerat a elit at malesuada. Etiam mauris sem, tincidunt vel aliquet ut...",
      "muted": "AI, ML"
    },
    {
      "image": "images/dummy/photo5_16x9.jpg",
      "title": "How will 5G enhance CX?",
      "info": "<small class=\"text-label\">By First Last</small><time datetime=\"2019-09-20\">20.09.2019</time>",
      "body": "Lorem ipsum dolor sit amet, consectetur adipiscing elit. Praesent dapibus dapibus nisi. Maecenas placerat a elit.",
      "muted": "AB, CD"
    },
    {
      "image": "images/dummy/photo1_16x9.jpg",
      "title": "How can tech like AI and ML help your CX",
      "info": "<small class=\"text-label\">By First Middle Last</small><time datetime=\"2019-08-22\">22.08.2019</time>",
      "body": "Lorem ipsum dolor sit amet, consectetur adipiscing elit. Praesent dapibus dapibus nisi. Maecenas placerat a elit at malesuada. Etiam mauris sem, tincidunt vel aliquet ut...",
      "muted": "BC, CA"
    }
  ]
}